…
## Simulate a lot

Start with a for loop.

``` r
output <- vector("list", length = 100)

for (i in 1:100) {
  output[[i]] <- sim_mean_sd(samp_size = 30)
}

bind_rows(output)
```

    ## # A tibble: 100 × 2
    ##     mean    sd
    ##    <dbl> <dbl>
    ##  1  3.99  2.94
    ##  2  4.06  3.83
    ##  3  4.07  2.63
    ##  4  2.45  4.21
    ##  5  2.48  3.18
    ##  6  2.42  3.47
    ##  7  3.19  4.27
    ##  8  2.37  3.65
    ##  9  2.28  4.20
    ## 10  3.64  3.32
    ## # … with 90 more rows
…
